^C:\USERS\GINES\SOURCE\REPOS\ORENES\ORENES\PCH.CPP
/c /ZI /JMC /nologo /W3 /WX- /diagnostics:classic /sdl /Od /Oy- /D CODE_ANALYSIS /D WIN32 /D _DEBUG /D _CONSOLE /D _UNICODE /D UNICODE /P /Gm- /EHsc /RTC1 /MDd /GS /fp:precise /permissive- /Zc:wchar_t /Zc:forScope /Zc:inline /Yc"pch.h" /Fp"DEBUG\ORENES.PCH" /Fo"DEBUG\\" /Fd"DEBUG\VC141.PDB" /Gd /TP /wd4996 /showIncludes /analyze /analyze:quiet /analyze:plugin"C:\Program Files (x86)\Microsoft Visual Studio\2017\Community\VC\Tools\MSVC\14.16.27023\bin\HostX86\x86\EspXEngine.dll" /analyze:plugin"C:\Program Files (x86)\Microsoft Visual Studio\2017\Community\VC\Tools\MSVC\14.16.27023\bin\HostX86\x86\localespc.dll" /FC  /analyze:ruleset"C:\Program Files (x86)\Microsoft Visual Studio\2017\Community\Team Tools\Static Analysis Tools\Rule Sets\NativeRecommendedRules.ruleset" C:\USERS\GINES\SOURCE\REPOS\ORENES\ORENES\PCH.CPP
^C:\USERS\GINES\SOURCE\REPOS\ORENES\ORENES\CACHELRU.CPP
/c /ZI /JMC /nologo /W3 /WX- /diagnostics:classic /sdl /Od /Oy- /D CODE_ANALYSIS /D WIN32 /D _DEBUG /D _CONSOLE /D _UNICODE /D UNICODE /P /Gm- /EHsc /RTC1 /MDd /GS /fp:precise /permissive- /Zc:wchar_t /Zc:forScope /Zc:inline /Yu"pch.h" /Fp"DEBUG\ORENES.PCH" /Fo"DEBUG\\" /Fd"DEBUG\VC141.PDB" /Gd /TP /wd4996 /showIncludes /analyze /analyze:quiet /analyze:plugin"C:\Program Files (x86)\Microsoft Visual Studio\2017\Community\VC\Tools\MSVC\14.16.27023\bin\HostX86\x86\EspXEngine.dll" /analyze:plugin"C:\Program Files (x86)\Microsoft Visual Studio\2017\Community\VC\Tools\MSVC\14.16.27023\bin\HostX86\x86\localespc.dll" /FC  /analyze:ruleset"C:\Program Files (x86)\Microsoft Visual Studio\2017\Community\Team Tools\Static Analysis Tools\Rule Sets\NativeRecommendedRules.ruleset" C:\USERS\GINES\SOURCE\REPOS\ORENES\ORENES\CACHELRU.CPP
^C:\USERS\GINES\SOURCE\REPOS\ORENES\ORENES\ORENES.CPP
/c /ZI /JMC /nologo /W3 /WX- /diagnostics:classic /sdl /Od /Oy- /D CODE_ANALYSIS /D WIN32 /D _DEBUG /D _CONSOLE /D _UNICODE /D UNICODE /P /Gm- /EHsc /RTC1 /MDd /GS /fp:precise /permissive- /Zc:wchar_t /Zc:forScope /Zc:inline /Yu"pch.h" /Fp"DEBUG\ORENES.PCH" /Fo"DEBUG\\" /Fd"DEBUG\VC141.PDB" /Gd /TP /wd4996 /showIncludes /analyze /analyze:quiet /analyze:plugin"C:\Program Files (x86)\Microsoft Visual Studio\2017\Community\VC\Tools\MSVC\14.16.27023\bin\HostX86\x86\EspXEngine.dll" /analyze:plugin"C:\Program Files (x86)\Microsoft Visual Studio\2017\Community\VC\Tools\MSVC\14.16.27023\bin\HostX86\x86\localespc.dll" /FC  /analyze:ruleset"C:\Program Files (x86)\Microsoft Visual Studio\2017\Community\Team Tools\Static Analysis Tools\Rule Sets\NativeRecommendedRules.ruleset" C:\USERS\GINES\SOURCE\REPOS\ORENES\ORENES\ORENES.CPP
