^C:\USERS\GINES\SOURCE\REPOS\ORENES\ORENES\DEBUG\PCH.I|C:\USERS\GINES\SOURCE\REPOS\ORENES\ORENES\PCH.CPP
C:\USERS\GINES\SOURCE\REPOS\ORENES\ORENES\DEBUG\PCH.I
^C:\USERS\GINES\SOURCE\REPOS\ORENES\ORENES\PCH.CPP
C:\USERS\GINES\SOURCE\REPOS\ORENES\ORENES\DEBUG\VC141.PDB
C:\USERS\GINES\SOURCE\REPOS\ORENES\ORENES\CACHELRU.I
C:\USERS\GINES\SOURCE\REPOS\ORENES\ORENES\ORENES.I
^C:\USERS\GINES\SOURCE\REPOS\ORENES\ORENES\CACHELRU.CPP|C:\USERS\GINES\SOURCE\REPOS\ORENES\ORENES\DEBUG\CACHELRU.I|C:\USERS\GINES\SOURCE\REPOS\ORENES\ORENES\DEBUG\ORENES.I|C:\USERS\GINES\SOURCE\REPOS\ORENES\ORENES\ORENES.CPP
C:\USERS\GINES\SOURCE\REPOS\ORENES\ORENES\DEBUG\CACHELRU.I
C:\USERS\GINES\SOURCE\REPOS\ORENES\ORENES\DEBUG\ORENES.I
^C:\USERS\GINES\SOURCE\REPOS\ORENES\ORENES\CACHELRU.CPP
C:\USERS\GINES\SOURCE\REPOS\ORENES\ORENES\DEBUG\VC141.PDB
^C:\USERS\GINES\SOURCE\REPOS\ORENES\ORENES\ORENES.CPP
C:\USERS\GINES\SOURCE\REPOS\ORENES\ORENES\DEBUG\VC141.PDB
